\relax 
\providecommand\hyper@newdestlabel[2]{}
\catcode `"\active 
\providecommand\HyperFirstAtBeginDocument{\AtBeginDocument}
\HyperFirstAtBeginDocument{\ifx\hyper@anchor\@undefined
\global\let\oldcontentsline\contentsline
\gdef\contentsline#1#2#3#4{\oldcontentsline{#1}{#2}{#3}}
\global\let\oldnewlabel\newlabel
\gdef\newlabel#1#2{\newlabelxx{#1}#2}
\gdef\newlabelxx#1#2#3#4#5#6{\oldnewlabel{#1}{{#2}{#3}}}
\AtEndDocument{\ifx\hyper@anchor\@undefined
\let\contentsline\oldcontentsline
\let\newlabel\oldnewlabel
\fi}
\fi}
\global\let\hyper@last\relax 
\gdef\HyperFirstAtBeginDocument#1{#1}
\providecommand\HyField@AuxAddToFields[1]{}
\providecommand\HyField@AuxAddToCoFields[2]{}
\select@language{polish}
\@writefile{toc}{\select@language{polish}}
\@writefile{lof}{\select@language{polish}}
\@writefile{lot}{\select@language{polish}}
\select@language{polish}
\@writefile{toc}{\select@language{polish}}
\@writefile{lof}{\select@language{polish}}
\@writefile{lot}{\select@language{polish}}
\@writefile{toc}{\contentsline {chapter}{\numberline {1}Wst\IeC {\k e}p}{1}{chapter.1}}
\@writefile{lof}{\addvspace {10\p@ }}
\@writefile{lot}{\addvspace {10\p@ }}
\@writefile{loa}{\addvspace {10\p@ }}
\@writefile{toc}{\contentsline {chapter}{\numberline {2}Cechy i za\IeC {\l }o\IeC {\.z}enia j\IeC {\k e}zyka}{3}{chapter.2}}
\@writefile{lof}{\addvspace {10\p@ }}
\@writefile{lot}{\addvspace {10\p@ }}
\@writefile{loa}{\addvspace {10\p@ }}
\newlabel{rozdzial1}{{2}{3}{Cechy i założenia języka}{chapter.2}{}}
\@writefile{toc}{\contentsline {section}{\numberline {2.1}P\IeC {\k e}tla REPL}{3}{section.2.1}}
\@writefile{lol}{\contentsline {lstlisting}{\numberline {2.1}Przyk\IeC {\l }ad REPL}{3}{lstlisting.2.1}}
\@writefile{lol}{\contentsline {lstlisting}{\numberline {2.2}Wielolinijkowy kod \IeC {\'z}r\IeC {\'o}d\IeC {\l }owy w REPL}{3}{lstlisting.2.2}}
\@writefile{toc}{\contentsline {section}{\numberline {2.2}Gramatyka j\IeC {\k e}zyka}{4}{section.2.2}}
\@writefile{lol}{\contentsline {lstlisting}{\numberline {2.3}Gramatyka j\IeC {\k e}zyka}{4}{lstlisting.2.3}}
\@writefile{toc}{\contentsline {section}{\numberline {2.3}Wyra\IeC {\.z}enia I32, NIL oraz TRUE}{5}{section.2.3}}
\@writefile{toc}{\contentsline {subsection}{\numberline {2.3.1}Przyk\IeC {\l }ad dzia\IeC {\l }ania}{5}{subsection.2.3.1}}
\@writefile{lol}{\contentsline {lstlisting}{\numberline {2.4}Przyk\IeC {\l }ad dzia\IeC {\l }ania wyra\IeC {\.z}e\IeC {\'n} warto\IeC {\'s}ci}{5}{lstlisting.2.4}}
\@writefile{toc}{\contentsline {section}{\numberline {2.4}Wyra\IeC {\.z}enie let}{5}{section.2.4}}
\newlabel{let}{{2.4}{5}{Wyrażenie let}{section.2.4}{}}
\@writefile{lol}{\contentsline {lstlisting}{\numberline {2.5}Gramatyka wyra\IeC {\.z}enia \texttt  {let}}{5}{lstlisting.2.5}}
\@writefile{toc}{\contentsline {subsection}{\numberline {2.4.1}Wielokrotne deklarowanie zmiennych}{5}{subsection.2.4.1}}
\@writefile{lol}{\contentsline {lstlisting}{\numberline {2.6}Zagnie\IeC {\.z}d\IeC {\.z}one wyra\IeC {\.z}enia \texttt  {let}}{5}{lstlisting.2.6}}
\@writefile{lol}{\contentsline {lstlisting}{\numberline {2.7}Wiele deklaracji zmiennych}{6}{lstlisting.2.7}}
\@writefile{lol}{\contentsline {lstlisting}{\numberline {2.8}Uproszczona gramatyka let}{6}{lstlisting.2.8}}
\@writefile{toc}{\contentsline {subsection}{\numberline {2.4.2}Przyk\IeC {\l }ad u\IeC {\.z}ycia zmiennej wewn\IeC {\k a}trz deklaracji}{6}{subsection.2.4.2}}
\@writefile{lol}{\contentsline {lstlisting}{\numberline {2.9}U\IeC {\.z}ycie zmiennych wewn\IeC {\k a}trz deklaracji}{6}{lstlisting.2.9}}
\@writefile{toc}{\contentsline {subsection}{\numberline {2.4.3}Przeszukiwanie zakres\IeC {\'o}w lokalnych}{6}{subsection.2.4.3}}
\@writefile{lol}{\contentsline {lstlisting}{\numberline {2.10}Przys\IeC {\l }anianie nazw zmiennych}{6}{lstlisting.2.10}}
\citation{JCINodesChord}
\@writefile{toc}{\contentsline {section}{\numberline {2.5}Wyra\IeC {\.z}enie cond}{7}{section.2.5}}
\@writefile{lol}{\contentsline {lstlisting}{\numberline {2.11}Gramatyka wyra\IeC {\.z}enia cond}{7}{lstlisting.2.11}}
\@writefile{lol}{\contentsline {lstlisting}{\numberline {2.12}Przyk\IeC {\l }ad wyra\IeC {\.z}enia cond}{7}{lstlisting.2.12}}
\@writefile{toc}{\contentsline {section}{\numberline {2.6}Wyra\IeC {\.z}enie lambda}{7}{section.2.6}}
\newlabel{lambda}{{2.6}{7}{Wyrażenie lambda}{section.2.6}{}}
\@writefile{lol}{\contentsline {lstlisting}{\numberline {2.13}Gramatyka wyra\IeC {\.z}enia lambda}{7}{lstlisting.2.13}}
\@writefile{lol}{\contentsline {lstlisting}{\numberline {2.14}Przyk\IeC {\l }ad wyra\IeC {\.z}enia lambda wraz z wywo\IeC {\l }aniem funkcji}{7}{lstlisting.2.14}}
\@writefile{lol}{\contentsline {lstlisting}{\numberline {2.15}Przyk\IeC {\l }ad wyniku wyra\IeC {\.z}enia lambda}{8}{lstlisting.2.15}}
\@writefile{toc}{\contentsline {subsection}{\numberline {2.6.1}Domkni\IeC {\k e}cia}{8}{subsection.2.6.1}}
\newlabel{closures}{{2.6.1}{8}{Domknięcia}{subsection.2.6.1}{}}
\@writefile{lol}{\contentsline {lstlisting}{\numberline {2.16}Przyk\IeC {\l }ad domkni\IeC {\k e}cia (jako techniki)}{8}{lstlisting.2.16}}
\@writefile{toc}{\contentsline {section}{\numberline {2.7}Wyra\IeC {\.z}enie var}{8}{section.2.7}}
\@writefile{lol}{\contentsline {lstlisting}{\numberline {2.17}Gramatyka wyra\IeC {\.z}enia var}{8}{lstlisting.2.17}}
\@writefile{lol}{\contentsline {lstlisting}{\numberline {2.18}Przyk\IeC {\l }ad u\IeC {\.z}ycia niezdefiniowanej zmiennej}{8}{lstlisting.2.18}}
\@writefile{toc}{\contentsline {section}{\numberline {2.8}Wyra\IeC {\.z}enie primCall}{9}{section.2.8}}
\@writefile{lol}{\contentsline {lstlisting}{\numberline {2.19}Gramatyka wyra\IeC {\.z}enia primCall}{9}{lstlisting.2.19}}
\@writefile{lol}{\contentsline {lstlisting}{\numberline {2.20}Przyk\IeC {\l }ad wywo\IeC {\l }ania funkcji anonimowej przypisanej do zmiennej \texttt  {foo}}{9}{lstlisting.2.20}}
\@writefile{toc}{\contentsline {subsection}{\numberline {2.8.1}Funkcje wbudowane}{9}{subsection.2.8.1}}
\@writefile{toc}{\contentsline {subsubsection}{atom?}{9}{subsubsection*.1}}
\@writefile{toc}{\contentsline {subsubsection}{inc}{9}{subsubsection*.2}}
\@writefile{toc}{\contentsline {subsubsection}{dec}{9}{subsubsection*.3}}
\@writefile{toc}{\contentsline {subsubsection}{not}{10}{subsubsection*.4}}
\@writefile{toc}{\contentsline {subsubsection}{and}{10}{subsubsection*.5}}
\@writefile{toc}{\contentsline {subsubsection}{or}{10}{subsubsection*.6}}
\@writefile{toc}{\contentsline {subsubsection}{Operatory arytmetyczne}{10}{subsubsection*.7}}
\@writefile{toc}{\contentsline {subsubsection}{Operatory relacyjne}{10}{subsubsection*.8}}
\@writefile{toc}{\contentsline {subsubsection}{Cons}{10}{subsubsection*.9}}
\@writefile{lol}{\contentsline {lstlisting}{\numberline {2.21}Przyk\IeC {\l }ad u\IeC {\.z}ycia cons}{10}{lstlisting.2.21}}
\@writefile{toc}{\contentsline {subsubsection}{Car}{10}{subsubsection*.10}}
\@writefile{lol}{\contentsline {lstlisting}{\numberline {2.22}Przyk\IeC {\l }ad u\IeC {\.z}ycia car}{10}{lstlisting.2.22}}
\@writefile{toc}{\contentsline {subsubsection}{Cdr}{11}{subsubsection*.11}}
\@writefile{lol}{\contentsline {lstlisting}{\numberline {2.23}Przyk\IeC {\l }ad u\IeC {\.z}ycia cdr}{11}{lstlisting.2.23}}
\@writefile{toc}{\contentsline {section}{\numberline {2.9}Wyra\IeC {\.z}enie call}{11}{section.2.9}}
\@writefile{lol}{\contentsline {lstlisting}{\numberline {2.24}Gramatyka wyra\IeC {\.z}enia primCall}{11}{lstlisting.2.24}}
\@writefile{lol}{\contentsline {lstlisting}{\numberline {2.25}Przyk\IeC {\l }ad u\IeC {\.z}ycia wywo\IeC {\l }ania funkcji anonimowej}{11}{lstlisting.2.25}}
\@writefile{lol}{\contentsline {lstlisting}{\numberline {2.26}Przyk\IeC {\l }ad b\IeC {\l }\IeC {\k e}dnego u\IeC {\.z}ycia wywo\IeC {\l }ania funkcji}{11}{lstlisting.2.26}}
\@writefile{toc}{\contentsline {section}{\numberline {2.10}Rekurencja}{11}{section.2.10}}
\newlabel{rekurencja}{{2.10}{11}{Rekurencja}{section.2.10}{}}
\@writefile{lol}{\contentsline {lstlisting}{\numberline {2.27}Algorytm licz\IeC {\k a}cy n-ty element ci\IeC {\k a}gu Fibonacciego}{11}{lstlisting.2.27}}
\@writefile{toc}{\contentsline {subsection}{\numberline {2.10.1}Rekurencja ogonowa}{12}{subsection.2.10.1}}
\@writefile{lol}{\contentsline {lstlisting}{\numberline {2.28}Przyk\IeC {\l }ad rekurencji ogonowej}{12}{lstlisting.2.28}}
\@writefile{lol}{\contentsline {lstlisting}{\numberline {2.29}Przyk\IeC {\l }ad niesko\IeC {\'n}czonej rekurencji ogonowej}{12}{lstlisting.2.29}}
\@writefile{toc}{\contentsline {chapter}{\numberline {3}Architektura kompilatora i narz\IeC {\k e}dzi}{13}{chapter.3}}
\@writefile{lof}{\addvspace {10\p@ }}
\@writefile{lot}{\addvspace {10\p@ }}
\@writefile{loa}{\addvspace {10\p@ }}
\newlabel{rozdzial2}{{3}{13}{Architektura kompilatora i narzędzi}{chapter.3}{}}
\@writefile{toc}{\contentsline {section}{\numberline {3.1}Za\IeC {\l }o\IeC {\.z}enia}{13}{section.3.1}}
\@writefile{toc}{\contentsline {subsection}{\numberline {3.1.1}Przebiegi kompilatora}{13}{subsection.3.1.1}}
\@writefile{toc}{\contentsline {subsection}{\numberline {3.1.2}Maszyna wirtualna}{14}{subsection.3.1.2}}
\@writefile{toc}{\contentsline {section}{\numberline {3.2}Przypadki u\IeC {\.z}ycia i scenariusze}{15}{section.3.2}}
\@writefile{lof}{\contentsline {figure}{\numberline {3.1}{\ignorespaces Diagram sekwencji obrazuj\IeC {\k a}cy obs\IeC {\l }ug\IeC {\k e} p\IeC {\k e}tli REPL\relax }}{15}{figure.caption.12}}
\providecommand*\caption@xref[2]{\@setref\relax\@undefined{#1}}
\newlabel{fig:repl}{{3.1}{15}{Diagram sekwencji obrazujący obsługę pętli REPL\relax }{figure.caption.12}{}}
\@writefile{toc}{\contentsline {section}{\numberline {3.3}Diagramy klas}{16}{section.3.3}}
\@writefile{lof}{\contentsline {figure}{\numberline {3.2}{\ignorespaces Diagram klas przebiegu sp\IeC {\l }aszczaj\IeC {\k a}cego drzewo AST\relax }}{16}{figure.caption.13}}
\newlabel{fig:flat}{{3.2}{16}{Diagram klas przebiegu spłaszczającego drzewo AST\relax }{figure.caption.13}{}}
\@writefile{lof}{\contentsline {figure}{\numberline {3.3}{\ignorespaces Diagram klas przebiegu dziel\IeC {\k a}cego kod na bloki bazowe\relax }}{17}{figure.caption.14}}
\newlabel{fig:block}{{3.3}{17}{Diagram klas przebiegu dzielącego kod na bloki bazowe\relax }{figure.caption.14}{}}
\@writefile{lof}{\contentsline {figure}{\numberline {3.4}{\ignorespaces Diagram klas przebiegu analizuj\IeC {\k a}cego u\IeC {\.z}ycia zmiennych nielokalnych\relax }}{18}{figure.caption.15}}
\newlabel{fig:free}{{3.4}{18}{Diagram klas przebiegu analizującego użycia zmiennych nielokalnych\relax }{figure.caption.15}{}}
\@writefile{toc}{\contentsline {section}{\numberline {3.4}Diagramy aktywno\IeC {\'s}ci}{19}{section.3.4}}
\@writefile{lof}{\contentsline {figure}{\numberline {3.5}{\ignorespaces Diagram przedstawiaj\IeC {\k a}cy aktywno\IeC {\'s}\IeC {\'c} w trakcie kompilacji i wykonywania kodu\relax }}{19}{figure.caption.16}}
\newlabel{fig:komp-vm}{{3.5}{19}{Diagram przedstawiający aktywność w trakcie kompilacji i wykonywania kodu\relax }{figure.caption.16}{}}
\@writefile{lof}{\contentsline {figure}{\numberline {3.6}{\ignorespaces Diagram przedstawiaj\IeC {\k a}cy aktywno\IeC {\'s}\IeC {\'c} w trakcie przebieg\IeC {\'o}w kompilatora\relax }}{20}{figure.caption.17}}
\newlabel{fig:passes}{{3.6}{20}{Diagram przedstawiający aktywność w trakcie przebiegów kompilatora\relax }{figure.caption.17}{}}
\@writefile{toc}{\contentsline {section}{\numberline {3.5}Opis j\IeC {\k e}zyk\IeC {\'o}w po\IeC {\'s}rednich oraz bajtokodu}{21}{section.3.5}}
\newlabel{bytecode}{{3.5}{21}{Opis języków pośrednich oraz bajtokodu}{section.3.5}{}}
\@writefile{toc}{\contentsline {subsection}{\numberline {3.5.1}J\IeC {\k e}zyk po\IeC {\'s}redni 1}{21}{subsection.3.5.1}}
\@writefile{lol}{\contentsline {lstlisting}{\numberline {3.1}Gramatyka pierwszego j\IeC {\k e}zyka po\IeC {\'s}redniego}{21}{lstlisting.3.1}}
\@writefile{toc}{\contentsline {subsection}{\numberline {3.5.2}J\IeC {\k e}zyk po\IeC {\'s}redni 2}{21}{subsection.3.5.2}}
\@writefile{toc}{\contentsline {subsection}{\numberline {3.5.3}J\IeC {\k e}zyk po\IeC {\'s}redni 3}{21}{subsection.3.5.3}}
\@writefile{toc}{\contentsline {subsection}{\numberline {3.5.4}J\IeC {\k e}zyk po\IeC {\'s}redni 4}{22}{subsection.3.5.4}}
\@writefile{toc}{\contentsline {subsection}{\numberline {3.5.5}Bajtokod}{23}{subsection.3.5.5}}
\@writefile{toc}{\contentsline {section}{\numberline {3.6}Algorytm analizuj\IeC {\k a}cy wyst\IeC {\k e}powanie zmiennych nielokalnych}{24}{section.3.6}}
\@writefile{loa}{\contentsline {algocf}{\numberline {3.1}{\ignorespaces Wyporno\IeC {\'s}\IeC {\'c} przez b\IeC {\k a}blowanie\relax }}{24}{algocf.3.1}}
\newlabel{alg:mine}{{3.1}{24}{Algorytm analizujący występowanie zmiennych nielokalnych}{algocf.3.1}{}}
\bibstyle{plabbrv}
\bibdata{literatura}
\bibcite{JCINodesChord}{1}
\@writefile{toc}{\contentsline {chapter}{Bibliografia}{25}{chapter*.18}}
